<svg xmlns="http://www.w3.org/2000/svg" xmlns:xlink="http://www.w3.org/1999/xlink" style="isolation:isolate"
     viewBox="0 0 30 30" width="30" height="30">
    <path d=" M 0 30 L 0 15 L 15 0 L 30 15 L 30 30 L 0 30 Z  M 4 26 L 4 17 L 15 6 L 26 17 L 26 26 L 4 26 Z "
          fill-rule="evenodd" fill="rgb(255,255,255)"/>
</svg>